tvar,year,learner,iter,rsq,rmse,mae,timetrain,eta,max_depth,min_child_weight,colsample_bytree
tmax,2000,xgb,1,0.758052707244834,0.620037099347327,0.327212532499151,641.237000000001,0.100003428942034,18,5,0.999598176851665
tmax,2000,xgb,2,0.760338004623494,0.616106565370105,0.326781681652004,673.136000000002,0.145866274464651,20,5,0.82307261424545
tmax,2000,xgb,3,0.759269839695191,0.618240431014162,0.328981490148647,671.809000000001,0.138797382621657,20,14,0.834100114673949
tmax,2001,xgb,1,0.708614257894033,0.681800401191988,0.377335381835632,649.991999999998,0.110115728289185,20,14,0.797770299397995
tmax,2001,xgb,2,0.70267662736064,0.688222495731979,0.382265492597919,638.642,0.119092186528724,19,14,0.765951810881234
tmax,2001,xgb,3,0.712594028138022,0.67836835283941,0.381758214905035,638.692999999999,0.183737487365614,20,21,0.868611517696463
tmax,2002,xgb,1,0.722848956647864,0.685120791577719,0.383459047170792,656.629999999997,0.115834333705889,20,16,0.999977331341772
tmax,2002,xgb,2,0.728536037827811,0.679272313135616,0.379459143726038,659.502,0.123353025634424,20,7,0.874815003415279
tmax,2002,xgb,3,0.729623571833266,0.679394045088094,0.38733270048782,642.537000000004,0.209729550528171,20,16,0.817733637281691
tmax,2003,xgb,1,0.711286254252347,0.733909535347439,0.436857628752052,694.875,0.172884676094912,20,14,0.932523228858121
tmax,2003,xgb,2,0.705784028956597,0.738798512906762,0.441511744623217,618.275000000002,0.162552875935245,18,17,0.750014542864968
tmax,2003,xgb,3,0.708888054174038,0.740808082178514,0.441161660695213,647.882000000005,0.162723736299779,20,11,0.750093066086238
tmax,2004,xgb,1,0.703567858303675,0.694808191421488,0.391694859123319,1897.15,0.154012932315373,18,13,0.844421664933834
tmax,2004,xgb,2,0.715991089026111,0.679165587367647,0.385715299632924,661.850000000006,0.185112530837813,20,15,0.925657767708974
tmax,2004,xgb,3,0.708588887756602,0.688630478204076,0.387182167044725,656.092999999994,0.100014433226849,20,14,0.943024270950013
tmax,2005,xgb,1,0.706210807620421,0.695262896290337,0.409751372694009,630.126999999999,0.192589130433192,20,12,0.87328568713152
tmax,2005,xgb,2,0.703107016545184,0.699468418604388,0.404997904130696,638.226000000001,0.13158449412731,20,10,0.911567845763784
tmax,2005,xgb,3,0.699818022547608,0.704537470774691,0.413393122322916,603.772000000001,0.229632080317242,17,10,0.792909191179206
tmax,2006,xgb,1,0.707082875173384,0.714070620276689,0.415780849871255,621.037000000011,0.189403706263247,18,14,0.750032015328671
tmax,2006,xgb,2,0.713049804401052,0.706265837611891,0.408708900344142,640.596000000005,0.149618589105757,20,15,0.829969862633087
tmax,2006,xgb,3,0.713421912903359,0.708505908913286,0.413543946353203,638.521999999997,0.177148816497417,20,13,0.851127066401426
tmax,2007,xgb,1,0.710261015157435,0.697281235444404,0.409038230351559,675.115,0.192466388015593,20,23,0.896300046329125
tmax,2007,xgb,2,0.70946626658747,0.700121649177186,0.411838525714536,631.222,0.205297969595995,20,23,0.905180645753717
tmax,2007,xgb,3,0.709836300665388,0.697569250914404,0.40905931796395,621.375,0.185338914444682,19,19,0.824117661186447
tmax,2008,xgb,1,0.722061539927057,0.664179910492433,0.37501637795422,620.777999999999,0.16739511124033,19,14,0.971876092422463
tmax,2008,xgb,2,0.725438399664842,0.657746302428342,0.374001580139878,613.839,0.207298130532692,19,16,0.9996937681951
tmax,2008,xgb,3,0.726561328782873,0.660311802769981,0.374526581263778,623.407999999999,0.183007955321191,20,12,0.945115910570207
tmax,2009,xgb,1,0.73597612370491,0.694143154581913,0.403165602469076,628.216,0.154767212141508,20,14,0.750011909853474
tmax,2009,xgb,2,0.736440639178778,0.695032383163034,0.407714195566611,611.313,0.187194549082778,19,10,0.849417880926922
tmax,2009,xgb,3,0.741583032863804,0.690299159169431,0.405215717815038,618.668,0.170379044563475,20,21,0.912043707296725
tmax,2010,xgb,1,0.75396935361832,0.646048410371083,0.364979584355616,607.013999999999,0.16599716260971,18,13,0.965887165308231
tmax,2010,xgb,2,0.751542434237187,0.648868716115675,0.365800086962418,595.452,0.170005611104419,18,15,0.914181862329027
tmax,2010,xgb,3,0.756386891673682,0.642016739595546,0.363799244554306,623.688,0.180751324910863,20,12,0.855218980130272
tmax,2011,xgb,1,0.726405628064119,0.708279176865245,0.428154232187907,613.164000000001,0.189016363632237,20,20,0.840700247238114
tmax,2011,xgb,2,0.721473373787938,0.716185207730008,0.429042197633378,607.470999999998,0.158342439955263,20,18,0.840101322052928
tmax,2011,xgb,3,0.719994909296443,0.716717938794964,0.430424339570577,598.014000000003,0.177096339719376,18,13,0.835379254326239
tmax,2012,xgb,1,0.711355683582387,0.712594533703211,0.409369081361267,595.714,0.100015639933134,20,24,0.859629013738784
tmax,2012,xgb,2,0.716668227386749,0.703646120109563,0.408665729500073,593.726000000002,0.176987846249191,20,19,0.750013564347967
tmax,2012,xgb,3,0.718508592235927,0.703423804513291,0.408089749445725,600.954000000002,0.152112819164176,20,18,0.764515821905661
tmax,2013,xgb,1,0.735310717407275,0.681740777530155,0.384860394121687,573.159999999996,0.141505195594817,20,10,0.924529557256217
tmax,2013,xgb,2,0.73915621616998,0.673759664109212,0.384606462954518,568.522999999994,0.193150389126095,20,17,0.8873521727796
tmax,2013,xgb,3,0.737846626635525,0.674143448840046,0.382413454513774,570.199999999997,0.159322644439057,20,17,0.827475085275393
tmax,2014,xgb,1,0.725808780769127,0.663985852152734,0.387343165135336,549.074999999997,0.156171940133,20,30,0.75002107748481
tmax,2014,xgb,2,0.731079331602025,0.659309236101652,0.380717479006531,563.262000000002,0.142393946708762,20,9,0.798519585267059
tmax,2014,xgb,3,0.730172388408704,0.661774769020911,0.384050652383875,546.243999999999,0.166137439152214,20,14,0.927837266875311
tmax,2015,xgb,1,0.713818582321538,0.733636120511083,0.441651515154378,513.110000000001,0.200220578894368,20,18,0.848449592063844
tmax,2015,xgb,2,0.712109067312815,0.732952289036822,0.435919357422528,528.953000000001,0.165046880136631,20,14,0.846673642968675
tmax,2015,xgb,3,0.707102338599983,0.738790422924607,0.438331368815279,503.004000000001,0.151110272831284,20,10,0.768700246542721
tmax,2016,xgb,1,0.71304694114513,0.698568301449553,0.409448853885857,514.162000000004,0.186253294453031,20,8,0.750039404574188
tmax,2016,xgb,2,0.709735720248931,0.707852940646001,0.405389284017179,498.133999999998,0.132007815199904,20,11,0.861247572804132
tmax,2016,xgb,3,0.712530603693358,0.699872896561178,0.404886316775514,493.173999999999,0.160002024662774,18,14,0.818902866812928
tmean,2000,xgb,1,0.649489268892878,0.476613837265291,0.26569633088058,302.449000000001,0.178435373729296,20,5,0.77997169366327
tmean,2000,xgb,2,0.640342762779924,0.482608763781677,0.269070285203937,302.535,0.171267098287792,20,8,0.750055704560233
tmean,2000,xgb,3,0.650815304540128,0.47529561913435,0.266117811515036,297.334999999999,0.18993756953686,20,13,0.822698862472818
tmean,2001,xgb,1,0.579978920455534,0.522625370556208,0.297115318855911,244.643,0.183104162693527,20,8,0.930433794574564
tmean,2001,xgb,2,0.570679481633565,0.532142988522977,0.301915379840895,238.467000000001,0.152211370993985,20,8,0.750122839381313
tmean,2001,xgb,3,0.581746710385798,0.520393614671772,0.29746867968612,239.490999999998,0.181997940291278,19,5,0.903820887454286
tmean,2002,xgb,1,0.598781763238604,0.517497077747539,0.297853408725826,298.671999999999,0.162521446295004,20,11,0.990453925154104
tmean,2002,xgb,2,0.601496927251855,0.514608124035924,0.299206190297231,303.292999999998,0.176263187070649,20,9,0.866704842204486
tmean,2002,xgb,3,0.601169580297062,0.516436878017466,0.301497971922385,297.856,0.26056138481693,20,10,0.868862068012822
tmean,2003,xgb,1,0.591810339758253,0.575031176915719,0.352375506932754,293.145000000004,0.187513144489384,20,10,0.815641118078394
tmean,2003,xgb,2,0.596571155802056,0.573360326123619,0.352122198281688,309.942000000003,0.207582984348666,20,5,0.885219227223112
tmean,2003,xgb,3,0.592795997179748,0.575185042969205,0.353472251794947,241.953999999998,0.190252482660545,20,13,0.832944811705609
tmean,2004,xgb,1,0.58009621454844,0.550338019872043,0.326854930772424,176.279,0.157646990378271,20,13,0.863743010733742
tmean,2004,xgb,2,0.583867477352915,0.549771137008422,0.328290659616377,180.778,0.20092391295475,20,10,0.989385785502236
tmean,2004,xgb,3,0.572783654632838,0.562944987196569,0.332708691098163,165.494,0.198981088677276,19,18,0.847013271915468
tmean,2005,xgb,1,0.566160941233688,0.577042225076409,0.347866377100537,265.106,0.139105871398139,20,7,0.855442933936589
tmean,2005,xgb,2,0.567155730625268,0.577949842449362,0.348791345378571,260.741999999998,0.168381857591751,20,5,0.835374106079441
tmean,2005,xgb,3,0.567390319626953,0.57393352130333,0.347892934743557,281.968999999999,0.139422707894528,20,5,0.889796589137794
tmean,2006,xgb,1,0.582780237496979,0.559932972310639,0.330567422014636,268.854000000007,0.164632173204471,19,14,0.82162178282129
tmean,2006,xgb,2,0.581697410026016,0.560877700130407,0.330354116131965,261.447,0.149146194875357,18,9,0.891872308020538
tmean,2006,xgb,3,0.595118954999726,0.552271038584063,0.32771734947626,269.422999999995,0.193510890848096,20,11,0.887059599059801
tmean,2007,xgb,1,0.586429667971205,0.564686539049178,0.344272435387257,273.957999999999,0.218927275335774,20,7,0.999994978483009
tmean,2007,xgb,2,0.578836070945264,0.572864013732671,0.346865499436912,271.346999999994,0.166020647159548,20,9,0.999979131430064
tmean,2007,xgb,3,0.578416015848815,0.568548832942554,0.345008591242233,323.902000000002,0.137111977511177,19,11,0.999856580773248
tmean,2008,xgb,1,0.605716016949902,0.542739231660004,0.323622928518506,344.915999999999,0.196863564779301,20,3,0.83142811455888
tmean,2008,xgb,2,0.607591803063054,0.540393210303727,0.32121872144441,286.612999999999,0.186570255618426,20,6,0.861994877453981
tmean,2008,xgb,3,0.609225998194871,0.545553023522062,0.327362094809451,336.855,0.282606756774266,20,10,0.88401333995146
tmean,2009,xgb,1,0.628644920748946,0.562959072074467,0.340744569391465,344.019,0.180153644250822,20,5,0.769166126407072
tmean,2009,xgb,2,0.636445632465828,0.558275460816969,0.339329607118098,279.275000000001,0.162552927150031,20,11,0.91821323273575
tmean,2009,xgb,3,0.620175640923287,0.568924584881998,0.342754925716372,315.089,0.138180847166476,20,6,0.798245587173718
tmean,2010,xgb,1,0.619450007468076,0.523120150307367,0.302010062541789,348.494,0.104348786124546,20,5,0.7500316352463
tmean,2010,xgb,2,0.628348094073756,0.520934750373862,0.305783301178191,344.738,0.214378860878194,20,9,0.879484634353361
tmean,2010,xgb,3,0.627340823379051,0.5204901052823,0.305209195410108,349.091,0.223077030178416,20,5,0.865927732603552
tmean,2011,xgb,1,0.609882707139797,0.594053832090299,0.372067035328275,321.307999999997,0.217076551034139,18,17,0.830082798544114
tmean,2011,xgb,2,0.61454012537562,0.588553677202312,0.367587209313818,336.324000000001,0.1734370491084,20,14,0.940358631816313
tmean,2011,xgb,3,0.598553495337525,0.602289704457827,0.373634532855629,334.362000000001,0.144123093521921,19,13,0.770067805180588
tmean,2012,xgb,1,0.620357041732151,0.587972167438027,0.35216377328023,339.230000000003,0.155260426512235,19,3,0.874202656096542
tmean,2012,xgb,2,0.632092033864988,0.58075871271319,0.355270614924412,267.664000000001,0.211859773490966,20,16,0.854736154716011
tmean,2012,xgb,3,0.620617688687433,0.588225229953812,0.353917917867157,338.232,0.156102719749772,20,14,0.850832573471249
tmean,2013,xgb,1,0.611394363616795,0.563137282514463,0.326182715983309,344.031000000003,0.132313553748241,20,10,0.834131187266773
tmean,2013,xgb,2,0.621199068654199,0.560271890559101,0.327961712769737,335.123,0.168512053908745,20,11,0.867130665743949
tmean,2013,xgb,3,0.621655114435258,0.558181153906005,0.325911904118835,327.669000000002,0.160188599802678,20,11,0.954861715561493
tmean,2014,xgb,1,0.61467456299002,0.521750604417024,0.306602936630137,335.828000000001,0.163376440691296,20,6,0.775727872852498
tmean,2014,xgb,2,0.613889587222207,0.524231383939161,0.309825593674831,346.305999999997,0.167669979823194,20,9,0.842339503366839
tmean,2014,xgb,3,0.60998540782917,0.524400348872953,0.30865489302798,330.932000000001,0.136134849460826,20,4,0.817681206347097
tmean,2015,xgb,1,0.594513195244049,0.595920368247991,0.36447043271041,261.085999999999,0.175223131884105,20,10,0.761334277466749
tmean,2015,xgb,2,0.596944652572198,0.5971657235025,0.363256925487692,312.646999999997,0.161889341504034,19,9,0.829646297332277
tmean,2015,xgb,3,0.587846249007029,0.601809207573414,0.364606185671619,324.511999999999,0.10000382604894,20,5,0.933173917178036
tmean,2016,xgb,1,0.62080765384752,0.573012398231005,0.34453191044236,327.817999999999,0.169468823219782,20,11,0.904793090596344
tmean,2016,xgb,2,0.631560583922938,0.570740942896129,0.342732482784878,332.730000000003,0.172081420903231,20,8,0.894384499493663
tmean,2016,xgb,3,0.607213191494103,0.587963850851908,0.34810301466723,322.369999999995,0.10003721425902,20,10,0.806839462497468
tmin,2000,xgb,1,0.616601937385815,0.824927842768873,0.479277198143745,598.75,0.182338289074305,16,14,0.942488068436107
tmin,2000,xgb,2,0.621347822616434,0.822196697843929,0.47553819847516,648.440000000002,0.116292931075441,20,12,0.762965062695002
tmin,2000,xgb,3,0.612118523292517,0.831137221557505,0.480703375959797,595.639999999999,0.13753055023224,17,5,0.750057331361251
tmin,2001,xgb,1,0.55581189838295,0.845049161637362,0.492376700862924,646.315000000001,0.132123482715899,20,5,0.936643282271419
tmin,2001,xgb,2,0.544617560954911,0.852612949709325,0.493511682408275,624.312000000002,0.130536582174362,18,8,0.877202622312143
tmin,2001,xgb,3,0.548711426938114,0.849823232075314,0.490694537135734,650.377,0.100042837204171,20,5,0.803349530272032
tmin,2002,xgb,1,0.585254139827325,0.886661197852157,0.523573592494905,615.627999999997,0.151589402392407,17,5,0.791700496688971
tmin,2002,xgb,2,0.594261540646562,0.873782636196514,0.519577454476502,643.579000000005,0.122497803499574,20,19,0.919915490838395
tmin,2002,xgb,3,0.6022004830248,0.866850410506251,0.517233878903461,637.635000000002,0.150244601591839,20,11,0.870645661460003
tmin,2003,xgb,1,0.622469032909825,0.872704182601596,0.530221649037323,622.68,0.159698078986508,20,16,0.939446880432757
tmin,2003,xgb,2,0.614810594902019,0.879395787467237,0.527826218739875,620.654000000002,0.100014401298616,19,17,0.91343865575734
tmin,2003,xgb,3,0.612954026879269,0.881881084267494,0.531139157491955,611.849999999999,0.136794567352626,18,20,0.862038022471097
tmin,2004,xgb,1,0.597406873401029,0.851230517774626,0.493260853990613,1993.262,0.100016501127462,20,18,0.855430207610111
tmin,2004,xgb,2,0.601296254874207,0.847356357365825,0.499451126223393,1799.303,0.14122846164816,19,20,0.867442863142857
tmin,2004,xgb,3,0.600107078287815,0.846539875265466,0.497448833936355,1977.796,0.153377334194374,19,15,0.882510239396652
tmin,2005,xgb,1,0.603353198546048,0.876899491055358,0.523485260210607,625.22,0.100011245045084,20,13,0.889057426706251
tmin,2005,xgb,2,0.605626517068303,0.878282940639348,0.5239028737787,619.38,0.100019352396815,20,22,0.885423453784591
tmin,2005,xgb,3,0.602043603837325,0.885973929311349,0.528979157158506,628.921,0.105175509813125,19,17,0.810386016761186
tmin,2006,xgb,1,0.616437174435426,0.825279915882259,0.485353923274329,637.045999999995,0.151449901686517,20,11,0.750110646722586
tmin,2006,xgb,2,0.607135097368375,0.833162951687107,0.485928079782129,532.138999999996,0.100072349393087,20,20,0.957457309075525
tmin,2006,xgb,3,0.614598024517221,0.826412083152077,0.485152930617487,609.861000000004,0.164078839449212,18,11,0.874349486304709
tmin,2007,xgb,1,0.606500228857031,0.862926739343653,0.517032051453911,639.987999999998,0.100131999583019,20,16,0.755253480610325
tmin,2007,xgb,2,0.606417167957535,0.866606944882269,0.517692260590588,535.574999999997,0.114828212370048,20,18,0.79613562315717
tmin,2007,xgb,3,0.61942232287502,0.850145424412767,0.515491980592479,622.169000000009,0.169303228497846,20,20,0.921926936940992
tmin,2008,xgb,1,0.624466729999044,0.818488118232949,0.479941728932973,620.203,0.100012529708591,20,12,0.880351613031944
tmin,2008,xgb,2,0.628198944519301,0.819088358645157,0.480592599110201,604.16,0.11430800226517,20,11,0.868494992970227
tmin,2008,xgb,3,0.624706233471263,0.824044413321158,0.486967657431491,532.061000000001,0.170772246403401,20,21,0.956435538587393
tmin,2009,xgb,1,0.619117727624443,0.860933679984653,0.519873165861423,617.25,0.163034115796833,20,20,0.879796833429707
tmin,2009,xgb,2,0.61133221655323,0.867523661079357,0.52274768052156,600.668,0.155091324278156,20,20,0.999901377126722
tmin,2009,xgb,3,0.598944808171104,0.87972204035745,0.52357820800511,595.4,0.100060779651874,19,24,0.905059784282603
tmin,2010,xgb,1,0.618786438663511,0.822473934515727,0.474788438727399,647.411,0.10000129331588,20,18,0.868943694289451
tmin,2010,xgb,2,0.615194711849519,0.827114547427706,0.475549747695926,631.335,0.100129883852114,20,21,0.750027155038061
tmin,2010,xgb,3,0.620193335114511,0.82192658070346,0.476547816495822,498.138,0.136583866263878,20,18,0.750032600485715
tmin,2011,xgb,1,0.646793385790929,0.885908112967506,0.550072289768551,594.853999999999,0.172627554230852,20,15,0.922371016363035
tmin,2011,xgb,2,0.643901621909942,0.887457835366324,0.550306445309354,599.021000000001,0.177519640912817,20,17,0.750037964088037
tmin,2011,xgb,3,0.645947061457876,0.882441547202027,0.547842454983369,579.638999999999,0.180527979550831,19,17,0.870542473792171
tmin,2012,xgb,1,0.617261904042484,0.871696298390414,0.519077215616489,558.678,0.1198019728171,19,14,0.978325092998409
tmin,2012,xgb,2,0.610439374120044,0.876688203197865,0.520606705429421,579.727000000003,0.100052035231366,20,22,0.773435436163074
tmin,2012,xgb,3,0.620401279031285,0.867091393186147,0.519836255257265,570.692999999999,0.147940088956966,20,14,0.993118366561248
tmin,2013,xgb,1,0.619372339524423,0.817363962956492,0.472927960785638,549.272999999997,0.143510014337831,20,11,0.99994080989255
tmin,2013,xgb,2,0.617363335516918,0.81484760200754,0.477446638451371,525.619000000002,0.178483435278013,19,18,0.850474034503371
tmin,2013,xgb,3,0.619707859677323,0.813469512250573,0.472711175214555,531.152000000002,0.150269816838558,19,18,0.904762968002035
tmin,2014,xgb,1,0.63195531611586,0.811781540714516,0.482679029306601,518.962,0.163914856157149,19,11,0.871461282491277
tmin,2014,xgb,2,0.625327447180795,0.813600199255052,0.476293594706138,521.599999999999,0.100007528459357,20,12,0.750137347092206
tmin,2014,xgb,3,0.632830834498122,0.809921521844104,0.481354510468462,532.232000000004,0.1711868275282,19,18,0.887282797555185
tmin,2015,xgb,1,0.618007466333828,0.893080026624083,0.53968707147732,486.210000000003,0.160148936755431,19,30,0.880327285204668
tmin,2015,xgb,2,0.620126439618349,0.891868536936824,0.534737346276567,515.044000000002,0.100193524265389,20,12,0.776384756475681
tmin,2015,xgb,3,0.627250590189949,0.883762723743827,0.534253978954972,508.464,0.126122020056937,20,18,0.85089420460281
tmin,2016,xgb,1,0.628168627334254,0.865254728644117,0.511419475134801,476.675000000003,0.16566681659692,20,15,0.750022491264724
tmin,2016,xgb,2,0.626868717033088,0.859649705482746,0.506870256315621,492.538000000001,0.106606354724492,20,8,0.750014125513259
tmin,2016,xgb,3,0.63065282455069,0.860311769272483,0.507083914937529,473.545999999995,0.124872414497353,19,8,0.750001229633605
