,year,t_col,lst_col,nesting,aic,r2,r2.space,r2.time,rmse,rmse.space,rmse.time,cv.r2,cv.r2.space,cv.r2.time,cv.rmse,cv.rmse.space,cv.rmse.time,cv.i,cv.i.se,cv.slope,cv.slope.se,(Intercept).t,lst_col.t,sim_col.t,emis_col.t,ndvi_col.t,elev.t,pop.t,clc_urban_built.t,clc_urban_green.t,clc_mine_dump.t,clc_field.t,clc_shrub.t,clc_forest.t,clc_bare.t,clc_water.t
1,2003,tmin,aqua_night_lst,date,1585375,0.9527,0.8512,0.9666,1.6613,1.0085,1.3282,0.9525,0.8505,0.9665,1.6655,1.0108,1.3319,0.0007,0.0035,1,0.0003,177.37,47.07,469.71,11.56,0.23,18.9,21.26,-23.55,-23.04,-10.13,-25.34,-25.17,-29,-17.09,3.82
2,2003,tmin,terra_night_lst,date,1519590,0.9492,0.8741,0.9603,1.6755,0.9192,1.4086,0.949,0.8734,0.9601,1.6791,0.9215,1.4116,0.0004,0.0038,1,0.0004,186.12,29.89,597.12,5.14,5.36,15.62,17.33,-24.63,-25.27,-12.28,-29.3,-26.73,-30.11,-26.6,4.4
3,2003,tmin,aqua_night_lst,date,1587571,0.9524,0.849,0.9667,1.6658,1.016,1.3276,0.9522,0.8483,0.9665,1.67,1.0184,1.3313,0.0007,0.0035,1,0.0003,178.12,47.24,469.96,11.52,-14.23,15.18,23.14,NA,NA,NA,NA,NA,NA,NA,NA
4,2003,tmin,terra_night_lst,date,1522224,0.9488,0.8714,0.9602,1.6811,0.929,1.4091,0.9486,0.8707,0.9601,1.6848,0.9313,1.4121,0.0004,0.0038,1,0.0004,186.2,30.59,597.5,-0.91,-3.36,7.75,20.9,NA,NA,NA,NA,NA,NA,NA,NA
5,2003,tmin,aqua_night_lst,date/climate_type,1566835,0.9566,0.8636,0.9694,1.5915,0.9657,1.2728,0.9552,0.8577,0.9683,1.6164,0.9862,1.2941,0.0029,0.0034,0.9998,0.0003,145.12,46.05,386.77,10.48,-8.31,10.93,19.14,-18.78,-18.46,-7.06,-18.84,-19.05,-22.44,-15.37,2.81
6,2003,tmin,terra_night_lst,date/climate_type,1502776,0.953,0.8847,0.963,1.612,0.8796,1.3595,0.9518,0.8814,0.9621,1.6324,0.8919,1.3762,0.0013,0.0037,0.9999,0.0004,162.66,34.86,486.74,7.15,-2.38,11.14,18.69,-20.34,-21.12,-9.69,-23.5,-22.41,-25.25,-22.2,4.85
7,2003,tmin,aqua_night_lst,date/climate_type,1568071,0.9565,0.8626,0.9694,1.5934,0.9691,1.2725,0.9551,0.8567,0.9683,1.6184,0.9895,1.2939,0.0029,0.0034,0.9998,0.0003,144.99,46.31,385.69,13.24,-19.32,4.83,18.97,NA,NA,NA,NA,NA,NA,NA,NA
8,2003,tmin,terra_night_lst,date/climate_type,1504569,0.9528,0.8833,0.963,1.6151,0.8849,1.3597,0.9516,0.8799,0.9621,1.6355,0.8975,1.3762,0.0012,0.0037,1,0.0004,162.26,35.32,484.47,3.52,-11.86,2.1,21.57,NA,NA,NA,NA,NA,NA,NA,NA
1,2008,tmin,aqua_night_lst,date,1365960,0.9382,0.8406,0.954,1.5763,0.9251,1.276,0.9378,0.8397,0.9537,1.5808,0.9276,1.2798,0.001,0.0036,0.9999,0.0004,162.07,31.71,510.76,0.92,5.95,10.29,29.87,-23.41,-25.49,-11.65,-25.81,-24.94,-27.72,-27.78,10.54
2,2008,tmin,terra_night_lst,date,1340542,0.9363,0.877,0.9472,1.5579,0.819,1.3261,0.9359,0.8762,0.947,1.5621,0.8217,1.3294,0.0003,0.0038,1,0.0004,183.71,17.35,627.44,-4.49,10.73,-3.92,19.87,-21.53,-23.43,-11.18,-26.14,-24.09,-26.14,-32.77,8.27
3,2008,tmin,aqua_night_lst,date,1368439,0.9377,0.837,0.954,1.5817,0.9354,1.2753,0.9374,0.8361,0.9538,1.5863,0.9379,1.2792,0.001,0.0036,0.9999,0.0004,161.35,32.19,509.25,-1.59,-0.61,-2.01,32.08,NA,NA,NA,NA,NA,NA,NA,NA
4,2008,tmin,terra_night_lst,date,1343322,0.9358,0.8732,0.9472,1.564,0.8314,1.3258,0.9355,0.8724,0.947,1.5681,0.834,1.3291,0.0004,0.0039,1,0.0004,184.18,18.34,626.07,-12.59,9,-21.91,23.5,NA,NA,NA,NA,NA,NA,NA,NA
5,2008,tmin,aqua_night_lst,date/climate_type,1349425,0.9434,0.8538,0.9579,1.5078,0.8858,1.2209,0.9414,0.8484,0.9563,1.5349,0.902,1.2429,0.0031,0.0035,0.9998,0.0004,138.66,34.96,418.95,1.83,-0.67,-0.93,25.85,-17.61,-20.63,-7.45,-18.7,-18.17,-21,-21.99,9.99
6,2008,tmin,terra_night_lst,date/climate_type,1323831,0.9413,0.8882,0.9511,1.495,0.7809,1.2762,0.9396,0.8841,0.9498,1.5172,0.7949,1.2938,0.0011,0.0037,1,0.0004,155.16,24.18,514.5,-1.72,-0.94,-18.14,18.92,-17.08,-19.13,-7.97,-20.52,-18.75,-20.93,-24.87,8.29
7,2008,tmin,aqua_night_lst,date/climate_type,1351063,0.9432,0.8519,0.9579,1.5107,0.8917,1.2205,0.9411,0.8463,0.9563,1.5388,0.9084,1.2434,0.0032,0.0035,0.9998,0.0004,137.41,35.3,416.67,2.2,-6.78,-13.57,26.69,NA,NA,NA,NA,NA,NA,NA,NA
8,2008,tmin,terra_night_lst,date/climate_type,1325632,0.9411,0.8864,0.9511,1.4981,0.7871,1.2761,0.9393,0.8822,0.9497,1.521,0.8014,1.2943,0.0009,0.0037,1,0.0004,154.71,24.99,511.77,-6.55,-5.64,-33.64,21.6,NA,NA,NA,NA,NA,NA,NA,NA
1,2012,tmin,aqua_night_lst,date,1407424,0.9493,0.8308,0.9634,1.6384,0.9525,1.3301,0.949,0.83,0.9632,1.6427,0.9549,1.3337,0.0006,0.0035,1,0.0004,145.02,33.45,501.7,-3.27,8.83,11.48,22.21,-22.38,-26.62,-8.75,-24.49,-23.92,-27.5,-26.41,6.32
2,2012,tmin,terra_night_lst,date,1386180,0.9484,0.8699,0.9589,1.6343,0.8534,1.3901,0.9482,0.8692,0.9587,1.6382,0.8556,1.3932,0.0003,0.0036,1,0.0004,162.41,20.46,605.99,-10.21,19.78,1.82,18.07,-21.34,-25.74,-9.48,-25.58,-23.86,-26.79,-32.48,5.64
3,2012,tmin,aqua_night_lst,date,1409624,0.949,0.8267,0.9635,1.6433,0.9639,1.3292,0.9487,0.8259,0.9633,1.6475,0.9663,1.3327,0.0007,0.0035,1,0.0004,144.78,33.65,501.16,-4.45,1.18,-2.39,24.4,NA,NA,NA,NA,NA,NA,NA,NA
4,2012,tmin,terra_night_lst,date,1388873,0.948,0.8658,0.9589,1.6405,0.8666,1.3898,0.9477,0.865,0.9587,1.6447,0.8692,1.3931,0.0005,0.0037,1,0.0004,161.5,21.31,604.35,-17.11,17,-18.72,22,NA,NA,NA,NA,NA,NA,NA,NA
5,2012,tmin,aqua_night_lst,date/climate_type,1391433,0.9535,0.845,0.9664,1.5692,0.9118,1.275,0.9519,0.8398,0.9652,1.5952,0.9269,1.2968,0.0025,0.0034,0.9999,0.0004,125.29,36.13,416.45,-2.77,-1.09,2.52,19.84,-18.66,-23.38,-5.77,-19.3,-18.75,-22.48,-23.74,5.08
6,2012,tmin,terra_night_lst,date/climate_type,1372028,0.9521,0.8811,0.9616,1.5751,0.8156,1.3441,0.9507,0.877,0.9606,1.5969,0.8298,1.3611,0.0003,0.0036,1,0.0004,140.45,26.89,506.92,-7.97,7.49,-9.45,16.9,-18.51,-23.25,-7.59,-21.48,-20.09,-23.31,-27.43,5.34
7,2012,tmin,aqua_night_lst,date/climate_type,1393090,0.9533,0.8424,0.9664,1.5724,0.9195,1.2744,0.9517,0.8368,0.9653,1.5989,0.9355,1.2963,0.0023,0.0034,0.9999,0.0004,124.76,36.43,414.81,-0.66,-7.17,-11.35,20.43,NA,NA,NA,NA,NA,NA,NA,NA
8,2012,tmin,terra_night_lst,date/climate_type,1374010,0.9518,0.8787,0.9616,1.5788,0.8238,1.3439,0.9505,0.8742,0.9606,1.6012,0.8391,1.3609,0.0002,0.0036,1,0.0004,139.19,27.53,504.11,-11.35,2.21,-27.48,19.72,NA,NA,NA,NA,NA,NA,NA,NA
